Name,Status
Task1,StandBy
Task2,Running
Task3,Paused
Task4,Running
Task5,Running
Task6,Stopped
Task7,Paused
Task8,Running
Task9,StandBy
Task10,Running
Task11,Stopped
Task12,Running
Task1,StandBy
Task2,Running
Task3,Paused
Task4,Running
Task5,Running
Task6,Stopped
Task7,Paused
Task8,Running
Task9,StandBy
Task10,Running
Task11,Stopped
Task12,Running
